---
source: src/lexer/tests.rs
expression: "format!(\"NUMBER = {}\\nERROR: {}\", source, Lexer ::\n        top_level(& source).next().unwrap().unwrap_err().kind)"

---
NUMBER = 0xk
ERROR: lexical parse error: 'invalid digit found' at index 2
